Statistical Computations
…
Exploratory Data Analysis

Get mean by fruit and day

means <- data %>% group_by(Day, fruit) %>%
  summarise(Voltage = mean(Voltage))
means

## # A tibble: 21 x 3
## # Groups:   Day [?]
##      Day     fruit Voltage
##    <int>     <chr>   <dbl>
##  1     1    banana  0.2300
##  2     1    papaya  0.2700
##  3     1 pineapple  0.4467
##  4     2    banana  0.3633
##  5     2    papaya  0.3967
##  6     2 pineapple  0.6800
##  7     3    banana  0.4467
##  8     3    papaya  0.4933
##  9     3 pineapple  0.7900
## 10     4    banana  0.6600
## # ... with 11 more rows
…
